[gd_scene load_steps=5 format=2]

[ext_resource path="res://scenes/ui/rotation/RightPanel.gd" type="Script" id=1]
[ext_resource path="res://lib/assets/themes/vr_panel/invisible_panel_theme.tres" type="Theme" id=2]
[ext_resource path="res://assets/textures/buttons/right.svg" type="Texture" id=3]
[ext_resource path="res://lib/scenes/vr/ui/controls/GazeButton.gd" type="Script" id=4]

[node name="RightPanel" type="PanelContainer"]
margin_right = 48.0
margin_bottom = 98.0
theme = ExtResource( 2 )
script = ExtResource( 1 )
__meta__ = {
"_edit_use_anchors_": false
}

[node name="VBoxContainer" type="VBoxContainer" parent="."]
margin_right = 64.0
margin_bottom = 196.0

[node name="RightButton" type="Button" parent="VBoxContainer"]
margin_right = 64.0
margin_bottom = 128.0
rect_min_size = Vector2( 64, 128 )
icon = ExtResource( 3 )
expand_icon = true
script = ExtResource( 4 )

[node name="AutoRotateCheckBox" type="CheckBox" parent="VBoxContainer"]
margin_top = 132.0
margin_right = 64.0
margin_bottom = 196.0
rect_min_size = Vector2( 64, 64 )
[connection signal="button_down" from="VBoxContainer/RightButton" to="." method="_on_RightButton_button_down"]
[connection signal="button_up" from="VBoxContainer/RightButton" to="." method="_on_RightButton_button_up"]
[connection signal="toggled" from="VBoxContainer/AutoRotateCheckBox" to="." method="_on_AutoRotateCheckBox_toggled"]
