[gd_resource type="Environment" load_steps=2 format=2]

[sub_resource type="ProceduralSky" id=1]
sky_top_color = Color( 0.0470588, 0.454902, 0.976471, 1 )
sky_horizon_color = Color( 0.556863, 0.823529, 0.909804, 1 )
sky_curve = 0.25
ground_bottom_color = Color( 0.878431, 0.878431, 0.878431, 1 )
ground_horizon_color = Color( 0.556863, 0.823529, 0.909804, 1 )
ground_curve = 0.0313834
sun_latitude = 45.0
sun_longitude = -135.0

[resource]
background_mode = 2
background_sky = SubResource( 1 )
background_color = Color( 0, 0.752941, 1, 1 )
ambient_light_color = Color( 1, 1, 1, 1 )
ambient_light_energy = 0.1
ambient_light_sky_contribution = 0.5
glow_intensity = 1.5
glow_strength = 1.3
glow_bloom = 0.05
glow_hdr_threshold = 0.9
glow_hdr_luminance_cap = 0.05
glow_hdr_scale = 0.0
