[gd_scene load_steps=3 format=2]

[ext_resource path="res://lib/scenes/3d/MeshSprite.gd" type="Script" id=1]

[sub_resource type="QuadMesh" id=1]

[node name="MeshSprite" type="MeshInstance"]
mesh = SubResource( 1 )
material/0 = null
script = ExtResource( 1 )
