[gd_scene load_steps=4 format=2]

[ext_resource path="res://scenes/ui/hud/StructureHUD.gd" type="Script" id=1]
[ext_resource path="res://lib/scenes/3d/ui/HUD.tscn" type="PackedScene" id=2]
[ext_resource path="res://scenes/ui/hud/StructureHUDPanel.tscn" type="PackedScene" id=3]

[node name="StructureHUD" instance=ExtResource( 2 )]
script = ExtResource( 1 )
control = ExtResource( 3 )

[node name="Panel3D" parent="." index="0"]
control = ExtResource( 3 )
