[gd_resource type="StyleBoxFlat" format=2]

[resource]
content_margin_left = 16.0
content_margin_right = 16.0
content_margin_top = 0.0
content_margin_bottom = 0.0
bg_color = Color( 1, 1, 1, 0.501961 )
border_color = Color( 1, 1, 1, 1 )
